<?xml version="1.0" encoding="utf-8"?>
<COLLADA xmlns="http://www.collada.org/2005/11/COLLADASchema" version="1.4.1" xmlns:xsi="http://www.w3.org/2001/XMLSchema-instance">
  <asset>
    <contributor>
      <author>Blender User</author>
      <authoring_tool>Blender 2.79.0 commit date:2018-03-22, commit time:14:10, hash:f4dc9f9d68b</authoring_tool>
    </contributor>
    <created>2019-07-12T22:52:44</created>
    <modified>2019-07-12T22:52:44</modified>
    <unit name="meter" meter="1"/>
    <up_axis>Z_UP</up_axis>
  </asset>
  <library_images/>
  <library_effects>
    <effect id="Material-effect">
      <profile_COMMON>
        <technique sid="common">
          <phong>
            <emission>
              <color sid="emission">0 0 0 1</color>
            </emission>
            <ambient>
              <color sid="ambient">0 0 0 1</color>
            </ambient>
            <diffuse>
              <color sid="diffuse">0.64 0.64 0.64 1</color>
            </diffuse>
            <specular>
              <color sid="specular">0.5 0.5 0.5 1</color>
            </specular>
            <shininess>
              <float sid="shininess">50</float>
            </shininess>
            <index_of_refraction>
              <float sid="index_of_refraction">1</float>
            </index_of_refraction>
          </phong>
        </technique>
      </profile_COMMON>
    </effect>
  </library_effects>
  <library_materials>
    <material id="Material-material" name="Material">
      <instance_effect url="#Material-effect"/>
    </material>
  </library_materials>
  <library_geometries>
    <geometry id="Cube-mesh" name="Cube">
      <mesh>
        <source id="Cube-mesh-positions">
          <float_array id="Cube-mesh-positions-array" count="768">1.384334 1.173017 -0.7893169 1.184894 1.184894 -1 1.173018 1.384334 -0.7893169 1.361976 1.17889 -0.8945202 1.356045 1.278479 -0.7893169 1.33425 1.279641 -0.890068 1.18325 1.288769 -0.9718536 1.288769 1.18325 -0.9718536 1.282711 1.28271 -0.9445129 1.278479 1.356045 -0.7893169 1.17889 1.361975 -0.8945202 1.279641 1.33425 -0.890068 1.184894 -1.184894 -1 1.384334 -1.173018 -0.7893169 1.173017 -1.384334 -0.7893169 1.288769 -1.18325 -0.9718536 1.18325 -1.288769 -0.9718536 1.282711 -1.282711 -0.9445129 1.356045 -1.27848 -0.7893169 1.361976 -1.17889 -0.8945202 1.33425 -1.279642 -0.890068 1.17889 -1.361976 -0.8945202 1.278479 -1.356045 -0.7893169 1.279641 -1.33425 -0.890068 -1.184895 -1.184894 -1 -1.173018 -1.384334 -0.7893169 -1.384334 -1.173017 -0.7893169 -1.18325 -1.288769 -0.9718536 -1.28877 -1.18325 -0.9718536 -1.282711 -1.282711 -0.9445129 -1.27848 -1.356045 -0.7893169 -1.178891 -1.361976 -0.8945202 -1.279642 -1.33425 -0.890068 -1.361976 -1.17889 -0.8945202 -1.356046 -1.278479 -0.7893169 -1.334251 -1.279641 -0.890068 -1.173017 1.384335 -0.7893169 -1.184894 1.184895 -1 -1.384334 1.173018 -0.7893169 -1.17889 1.361976 -0.8945202 -1.278479 1.356046 -0.7893169 -1.279641 1.334251 -0.890068 -1.288769 1.18325 -0.9718536 -1.183249 1.28877 -0.9718536 -1.28271 1.282711 -0.9445129 -1.356045 1.27848 -0.7893169 -1.361975 1.178891 -0.8945202 -1.33425 1.279642 -0.890068 1.297715 1.086397 0.7893169 1.086398 1.297714 0.7893169 1.075155 1.075153 1 1.269426 1.191859 0.7893169 1.263811 1.080725 0.8945202 1.236574 1.181964 0.890068 1.080726 1.26381 0.8945202 1.19186 1.269425 0.7893169 1.181966 1.236573 0.890068 1.182118 1.076598 0.9718536 1.076599 1.182117 0.9718536 1.17906 1.179059 0.9445129 1.086397 -1.297715 0.7893169 1.297714 -1.086399 0.7893169 1.075153 -1.075155 1 1.191859 -1.269426 0.7893169 1.080725 -1.263812 0.8945202 1.181964 -1.236575 0.890068 1.26381 -1.080726 0.8945202 1.269425 -1.19186 0.7893169 1.236573 -1.181966 0.890068 1.076598 -1.182119 0.9718536 1.182117 -1.076599 0.9718536 1.179059 -1.17906 0.9445129 -1.297715 -1.086397 0.7893169 -1.086398 -1.297714 0.7893169 -1.075155 -1.075154 1 -1.269426 -1.191859 0.7893169 -1.263811 -1.080725 0.8945202 -1.236574 -1.181965 0.890068 -1.080726 -1.26381 0.8945202 -1.19186 -1.269425 0.7893169 -1.181966 -1.236573 0.890068 -1.182118 -1.076598 0.9718536 -1.076599 -1.182117 0.9718536 -1.17906 -1.179059 0.9445129 -1.297714 1.086398 0.7893169 -1.075154 1.075154 1 -1.086398 1.297714 0.7893169 -1.263811 1.080725 0.8945202 -1.269425 1.191859 0.7893169 -1.236574 1.181965 0.890068 -1.076598 1.182118 0.9718536 -1.182118 1.076598 0.9718536 -1.179059 1.17906 0.9445129 -1.191859 1.269425 0.7893169 -1.080725 1.263811 0.8945202 -1.181965 1.236574 0.890068 -0.2109998 1.184895 -1 -0.2109997 1.384334 -0.7893169 0.2110002 1.384334 -0.7893169 0.2110002 1.184895 -1 -0.2109997 1.286823 -0.9686836 -0.07033306 1.184895 -1 -0.07033306 1.293545 -0.9688863 -0.07033306 1.384334 -0.7893169 -0.2109997 1.361872 -0.8946083 -0.07033306 1.35922 -0.8995085 0.2110003 1.358649 -0.8928086 0.0703336 1.384334 -0.789317 0.0703336 1.35922 -0.8995087 0.07033354 1.184895 -1 0.2110003 1.288797 -0.9718028 0.07033354 1.293545 -0.9688863 -0.2110002 -1.184894 -1 0.2109998 -1.184894 -1 0.2109997 -1.384334 -0.7893169 -0.2110003 -1.384334 -0.7893169 -0.07033354 -1.184894 -1 -0.2110002 -1.288797 -0.9718028 -0.07033354 -1.293544 -0.9688863 0.2109998 -1.286823 -0.9686837 0.07033312 -1.184894 -1 0.07033312 -1.293544 -0.9688864 0.07033306 -1.384334 -0.7893169 0.2109998 -1.361872 -0.8946083 0.07033306 -1.35922 -0.8995087 -0.2110003 -1.358649 -0.8928086 -0.0703336 -1.384334 -0.789317 -0.07033354 -1.35922 -0.8995087 -0.2109997 1.077038 1.028137 0.2110003 1.077038 1.028137 0.2110003 1.297714 0.7893169 -0.2109996 1.297714 0.7893169 -0.070333 1.077038 1.028137 -0.2109997 1.181164 0.9832442 -0.070333 1.188832 0.9842208 0.2110003 1.181164 0.9832442 0.0703336 1.077038 1.028137 0.07033365 1.188832 0.9842208 0.07033365 1.297714 0.7893169 0.2110003 1.261171 0.8966583 0.07033365 1.26275 0.9042259 -0.2109996 1.261172 0.8966584 -0.07033294 1.297714 0.7893169 -0.070333 1.26275 0.9042259 -0.2110005 -1.077039 1.028137 -0.2110005 -1.297714 0.7893169 0.2109994 -1.297715 0.7893169 0.2109994 -1.077039 1.028137 -0.2110005 -1.181164 0.9832442 -0.07033383 -1.077039 1.028137 -0.07033389 -1.188833 0.9842208 -0.07033383 -1.297714 0.7893169 -0.2110005 -1.261172 0.8966583 -0.07033389 -1.26275 0.9042258 0.2109994 -1.261172 0.8966584 0.07033276 -1.297714 0.7893169 0.07033276 -1.26275 0.9042259 0.07033276 -1.077039 1.028137 0.2109994 -1.181164 0.9832442 0.07033276 -1.188833 0.9842207 1.384334 -0.2110002 -0.7893169 1.184894 -0.211 -1 1.184894 0.2109999 -1 1.384334 0.2109998 -0.7893169 1.358649 -0.2110002 -0.8928086 1.384334 -0.07033354 -0.789317 1.35922 -0.07033348 -0.8995087 1.184894 -0.07033336 -1 1.288797 -0.2110001 -0.9718028 1.293544 -0.07033342 -0.9688864 1.286823 0.2109999 -0.9686837 1.184894 0.07033324 -1 1.293544 0.07033318 -0.9688864 1.384334 0.07033312 -0.7893169 1.361872 0.2109998 -0.8946083 1.35922 0.07033312 -0.8995087 -1.184894 0.2110003 -1 -1.184894 -0.2109997 -1 -1.384334 -0.2109997 -0.7893169 -1.384334 0.2110003 -0.7893169 -1.184894 0.0703336 -1 -1.288797 0.2110003 -0.9718027 -1.293544 0.07033365 -0.9688863 -1.286823 -0.2109996 -0.9686837 -1.184894 -0.070333 -1 -1.293545 -0.07033294 -0.9688864 -1.384334 -0.070333 -0.7893169 -1.361872 -0.2109996 -0.8946083 -1.35922 -0.07033294 -0.8995086 -1.358649 0.2110003 -0.8928086 -1.384334 0.07033365 -0.789317 -1.35922 0.07033365 -0.8995086 1.297714 -0.2110008 0.7893169 1.297714 0.2109992 0.7893169 1.077039 0.2109992 1.028137 1.077038 -0.2110008 1.028137 1.297714 -0.07033407 0.7893169 1.261171 -0.2110008 0.8966584 1.262749 -0.07033413 0.9042258 1.261172 0.2109992 0.8966584 1.297714 0.07033252 0.7893169 1.26275 0.07033252 0.9042259 1.077039 0.07033252 1.028137 1.181164 0.2109991 0.9832442 1.188833 0.07033252 0.9842208 1.181164 -0.2110008 0.9832442 1.077038 -0.07033407 1.028137 1.188832 -0.07033413 0.9842208 -1.077039 0.2110001 1.028137 -1.297714 0.2110002 0.7893169 -1.297714 -0.2109997 0.7893169 -1.077039 -0.2109998 1.028137 -1.181164 0.2110002 0.9832442 -1.077039 0.07033348 1.028137 -1.188833 0.07033354 0.9842208 -1.297714 0.07033354 0.7893168 -1.261172 0.2110002 0.8966584 -1.26275 0.07033354 0.9042258 -1.261172 -0.2109997 0.8966584 -1.297714 -0.07033306 0.7893169 -1.26275 -0.07033306 0.904226 -1.077039 -0.07033318 1.028137 -1.181164 -0.2109997 0.9832442 -1.188833 -0.07033312 0.9842208 -0.2091487 -0.2091488 1.116774 0.2091484 -0.209149 1.116774 0.2091485 0.2091481 1.116774 -0.2091486 0.2091483 1.116774 -0.07653701 -0.2104187 1.126212 -0.2104185 -0.07653707 1.126212 -0.07111436 -0.07111459 1.138454 0.2104182 -0.07653719 1.126212 0.07653665 -0.2104188 1.126212 0.07111412 -0.07111459 1.138454 0.07653677 0.210418 1.126212 0.2104183 0.07653641 1.126212 0.07111412 0.07111388 1.138454 -0.2104185 0.07653659 1.126212 -0.07653689 0.2104181 1.126212 -0.07111436 0.07111394 1.138454 -0.211 0.2110002 -1 0.211 0.2110001 -1 0.211 -0.2109999 -1 -0.211 -0.2109999 -1 -0.0703333 0.2110001 -1 -0.211 0.07033348 -1 -0.0703333 0.07033342 -1 0.211 0.07033342 -1 0.0703333 0.2110001 -1 0.0703333 0.07033342 -1 0.0703333 -0.2109999 -1 0.211 -0.07033318 -1 0.0703333 -0.07033318 -1 -0.211 -0.07033318 -1 -0.07033336 -0.2109999 -1 -0.0703333 -0.07033318 -1</float_array>
          <technique_common>
            <accessor source="#Cube-mesh-positions-array" count="256" stride="3">
              <param name="X" type="float"/>
              <param name="Y" type="float"/>
              <param name="Z" type="float"/>
            </accessor>
          </technique_common>
        </source>
        <source id="Cube-mesh-normals">
          <float_array id="Cube-mesh-normals-array" count="1407">0 0 -1 -0.1008692 0.1008692 0.9897731 -2.4746e-7 -0.9984981 0.05478727 -0.9984981 3.13511e-7 0.05478757 1.35973e-7 0.998498 0.05478787 0.032597 0.03259712 0.9989369 -1.2373e-7 -0.9984981 0.05478799 -0.1008693 -0.1008692 0.9897731 0.998498 0 0.05478799 1.25686e-7 0 -1 0.03259712 -0.03259712 0.998937 2.71945e-7 0.998498 0.05478805 -0.9984981 6.27022e-7 0.05478751 0.9487397 0.2544888 -0.1874262 0.7137979 0.2257251 -0.6629787 0.2557591 0.2706952 -0.9280686 0.2257273 0.7137959 -0.66298 0.2544903 0.9487395 -0.1874251 0.6998058 0.6998096 -0.1433125 0.5984086 0.5984102 -0.5327404 0.2706955 -0.2557586 -0.9280687 0.7137963 -0.2257258 -0.6629803 0.9487391 -0.2544912 -0.187426 0.6998075 -0.6998075 -0.1433147 0.2544894 -0.9487394 -0.187427 0.2257258 -0.7137972 -0.6629793 0.5984097 -0.5984082 -0.5327416 -0.2557588 -0.2706955 -0.9280688 -0.225727 -0.7137988 -0.6629772 -0.2544884 -0.9487405 -0.1874223 -0.6998084 -0.6998064 -0.1433148 -0.94874 -0.2544888 -0.1874243 -0.7137972 -0.2257257 -0.6629794 -0.5984097 -0.5984082 -0.5327416 -0.2544896 0.9487392 -0.1874272 -0.2257258 0.7137973 -0.6629791 -0.270695 0.2557593 -0.9280687 -0.7137963 0.2257258 -0.6629803 -0.9487401 0.2544887 -0.1874246 -0.6998071 0.6998082 -0.1433133 -0.5984097 0.5984083 -0.5327416 0.9149545 0.2597346 0.308863 0.6772844 0.6772844 0.2873531 0.2452626 0.9143424 0.3222178 0.2107338 0.6663908 0.7152025 0.2437243 0.2437243 0.938721 0.6663892 0.2107346 0.7152038 0.5562846 0.5562819 0.6173313 0.2597366 -0.9149543 0.3088618 0.6772823 -0.6772869 0.2873523 0.9143416 -0.2452622 0.3222203 0.6663884 -0.2107337 0.7152048 0.2437236 -0.2437233 0.9387214 0.2107335 -0.6663904 0.7152029 0.5562804 -0.5562854 0.6173319 -0.9149541 -0.2597346 0.3088641 -0.6772837 -0.6772851 0.2873528 -0.2452635 -0.9143409 0.3222213 -0.210734 -0.6663895 0.7152037 -0.243724 -0.243724 0.9387211 -0.6663892 -0.2107352 0.7152036 -0.5562847 -0.5562819 0.6173314 -0.9143418 0.2452599 0.3222219 -0.6663913 0.2107345 0.7152019 -0.2437238 0.2437248 0.9387209 -0.2107329 0.66639 0.7152035 -0.259736 0.9149539 0.3088636 -0.6772854 0.6772836 0.2873525 -0.5562845 0.5562831 0.6173304 0 0.2936891 -0.9559011 -0.03566747 0.7257562 -0.6870267 0 0.9779926 -0.20864 0 0.9749975 -0.2222159 2.48361e-7 0.9705562 -0.2408748 0.03566706 0.7257565 -0.6870265 0 0.2619084 -0.9650928 4.70698e-7 0.2753 -0.9613585 -5.56848e-7 0.7262212 -0.6874611 0 -0.2619085 -0.9650928 4.6661e-7 -0.2753 -0.9613584 0 -0.2936897 -0.9559009 0.03566688 -0.7257546 -0.6870285 0 -0.9779918 -0.2086435 0 -0.9749979 -0.222214 -2.48361e-7 -0.9705562 -0.2408748 -0.03566867 -0.7257561 -0.6870269 5.5443e-7 -0.7262182 -0.6874643 0 0.3959138 0.9182878 4.45332e-7 0.3656352 0.9307582 0 0.3959144 0.9182875 0.04470437 0.7337211 0.6779786 7.00666e-7 0.9466468 0.3222731 0 0.9566922 0.2911014 8.13641e-7 0.9466487 0.3222672 -0.04470419 0.7337233 0.6779761 0 0.7344573 0.6786549 -4.20585e-7 -0.3959144 0.9182875 -0.04470598 -0.7337217 0.6779778 -7.00665e-7 -0.9466468 0.322273 0 -0.9566916 0.2911036 -8.13642e-7 -0.9466487 0.3222673 0.04470467 -0.7337213 0.6779783 0 -0.3959148 0.9182873 0 -0.3656352 0.9307582 0 -0.7344553 0.6786571 0.9705562 9.19262e-7 -0.240875 0.7257549 -0.03566813 -0.6870282 0.2619073 0 -0.9650931 0.2753001 0 -0.9613584 0.2936848 -4.96724e-7 -0.9559023 0.7257551 0.035667 -0.687028 0.9779927 0 -0.2086395 0.9749974 0 -0.2222162 0.7262178 0 -0.6874648 -0.261911 0 -0.9650921 -0.2753 0 -0.9613584 -0.2936846 0 -0.9559025 -0.7257575 -0.03566586 -0.6870255 -0.9779928 0 -0.2086387 -0.9749976 1.87462e-6 -0.2222151 -0.9705562 -9.19263e-7 -0.240875 -0.7257571 0.03566592 -0.6870259 -0.726219 2.21772e-6 -0.6874635 0.9466476 0 0.3222707 0.9566919 -1.67396e-6 0.2911028 0.9466477 0 0.3222706 0.733722 0.04470568 0.6779775 0.3959138 0 0.9182876 0.3656358 0 0.930758 0.3959152 0 0.9182872 0.7337231 -0.0447064 0.6779763 0.7344573 0 0.678655 -0.3959155 0 0.918287 -0.733722 0.04470533 0.6779776 -0.9466473 0 0.3222714 -0.9566917 0 0.2911031 -0.9466475 0 0.3222711 -0.7337217 -0.04470533 0.6779779 -0.395915 0 0.9182872 -0.3656339 0 0.9307588 -0.734456 0 0.6786563 -0.07148414 -0.07148581 0.9948768 4.38011e-7 -0.08754622 0.9961605 0.07148563 -0.07148587 0.9948768 0.0875464 0 0.9961605 0.0714842 0.07148587 0.9948769 -1.39224e-6 0.08754622 0.9961606 -0.07148605 0.07148587 0.9948768 -0.08754462 0 0.9961607 1.47325e-6 -8.38153e-7 1 -7.53074e-7 0 -1 0.9705562 0 -0.2408752 0.7491192 0.003745853 -0.6624246 0.2619069 4.29213e-5 -0.9650931 0.003704428 0.2936868 -0.9558946 1.09647e-5 0.702476 -0.7117075 3.39942e-7 0.9779927 -0.2086392 0.258498 0.9636813 0.06706118 0.7049882 0.7049868 0.07736563 0.9636811 0.2584989 0.06706076 0 -0.9705561 -0.2408751 0.003746032 -0.7491193 -0.6624246 4.29924e-5 -0.2619074 -0.9650931 0.9636819 -0.258496 0.06706118 0.7049875 -0.7049874 0.07736545 0.2584966 -0.9636817 0.06706064 -0.9705561 5.81049e-7 -0.2408753 -0.7491188 -0.003745555 -0.6624252 -0.2619087 -4.29925e-5 -0.9650928 -0.2584956 -0.9636819 0.06706118 -0.7049881 -0.7049867 0.07736587 -0.9636819 -0.2584958 0.06706112 -0.9636818 0.258496 0.06706082 -0.7049882 0.7049868 0.07736569 -0.2584972 0.9636814 0.06706154 0.3957276 -0.03074908 0.9178531 0.7344325 -0.00812155 0.6786332 0.9466457 0.002079963 0.3222697 0.002080261 0.9466461 0.3222684 -0.008121192 0.7344318 0.6786339 -0.03074884 0.3957275 0.9178531 -0.03074902 -0.3957276 0.9178529 -0.008121371 -0.7344318 0.678634 0.002079784 -0.9466453 0.3222706 -0.3957285 0.03074902 0.9178526 -0.7344316 0.008121371 0.6786342 -0.9466454 -0.002080261 0.3222704 0 0.2615337 -0.9651944 -1.51124e-5 0.7262181 -0.6874645 -0.003729104 0.9781046 -0.2080805 -8.61304e-5 -0.9781525 -0.2078888 -0.003695249 -0.7261106 -0.687568 -1.42171e-7 -0.2615333 -0.9651945 2.69505e-7 0.9517956 0.306733 -3.00546e-4 0.6874724 0.7262105 0.0124455 0.2542994 0.9670456 0.01244533 -0.2543006 0.9670453 -3.0107e-4 -0.6874733 0.7262097 -4.02378e-7 -0.9517974 0.3067275 0 0.9984981 0.05478781 0 0.9984981 0.05478769 0 0.9984981 0.05478799 -8.46187e-7 -0.9984981 0.05478757 0 -0.9984981 0.05478757 -0.07158535 -0.1011886 0.9922885 0 -0.1124507 0.9936573 0.07158464 -0.1011886 0.9922886 2.17544e-7 0 -1 2.17544e-7 0 -1 -4.35088e-7 0 -1 0.9781528 -8.6242e-5 -0.2078873 0.7261102 -0.00369507 -0.6875684 0.2615336 0 -0.9651944 -0.9781529 8.65289e-5 -0.2078864 -0.7261102 0.003695189 -0.6875686 -0.2615334 0 -0.9651945 0.2543002 0.01244521 0.9670453 0.6874713 -3.01331e-4 0.7262115 0.9517965 -3.08006e-7 0.3067303 -0.2543004 -0.01244533 0.9670453 -0.6874715 3.00874e-4 0.7262114 -0.9517962 0 0.3067313 0 0.1124507 0.9936574 8.62324e-7 0.1124506 0.9936574 0 0.1124507 0.9936573 2.17544e-7 0 -1 0.1011888 -0.07158601 0.9922884 0.1124509 0 0.9936573 0.1011887 0.07158607 0.9922884 -0.998498 6.95607e-7 0.05478757 -0.9984981 -6.95607e-7 0.05478739 -0.9984981 0 0.05478757 0.9984981 0 0.05478787 0.9984981 -2.1441e-6 0.05478787 0.9984981 0 0.05478769 -0.1124505 0 0.9936574 -0.1124504 0 0.9936574 -0.1124504 0 0.9936574 0 0 -1 0.998498 0 0.05478745 0 0 -1 -0.03259706 0.03259712 0.998937 -4.07918e-7 -0.9984981 0.05478781 -0.9984981 3.44533e-7 0.05478757 3.71189e-7 0.9984981 0.05478787 0.1008692 0.1008692 0.9897731 -5.43891e-7 -0.9984981 0.05478757 -0.03259706 -0.03259712 0.998937 0.998498 -3.44533e-7 0.05478787 0.1008691 -0.1008692 0.9897731 3.71189e-7 0.9984981 0.05478805 -0.9984981 3.44533e-7 0.05478757 0.9422292 0.2681604 -0.2007346 0.7137968 0.2257279 -0.6629789 0.2706957 0.2557599 -0.9280683 0.2257263 0.7137984 -0.6629778 0.2681612 0.9422283 -0.2007375 0.6998084 0.6998064 -0.1433148 0.25576 -0.2706946 -0.9280685 0.7137958 -0.2257276 -0.6629801 0.9422294 -0.268159 -0.2007353 0.6998085 -0.6998065 -0.1433141 0.2681602 -0.9422289 -0.2007358 0.2257266 -0.7137977 -0.6629784 -0.2706948 -0.2557586 -0.9280689 -0.2257262 -0.7137962 -0.6629801 -0.2681618 -0.9422283 -0.2007368 -0.6998056 -0.6998094 -0.1433143 -0.9422289 -0.2681604 -0.2007356 -0.7137963 -0.2257258 -0.6629803 -0.2681602 0.9422289 -0.2007358 -0.2257269 0.7137966 -0.6629794 -0.2557598 0.2706965 -0.9280681 -0.713797 0.2257264 -0.6629793 -0.9422279 0.2681647 -0.2007346 -0.6998098 0.699805 -0.143315 0.9143416 0.2452619 0.3222206 0.6772851 0.6772835 0.2873533 0.2597365 0.9149535 0.3088642 0.2107344 0.6663888 0.7152042 0.2563398 0.2563382 0.9319767 0.6663913 0.2107345 0.7152019 0.2452611 -0.9143416 0.3222215 0.6772845 -0.6772848 0.287352 0.9149535 -0.2597377 0.3088633 0.6663902 -0.2107349 0.7152027 0.2563384 -0.256339 0.9319769 0.2107344 -0.6663889 0.7152041 -0.9143413 -0.2452622 0.3222215 -0.6772856 -0.6772838 0.2873518 -0.259737 -0.9149544 0.3088611 -0.2107344 -0.6663886 0.7152043 -0.2563397 -0.2563391 0.9319765 -0.6663897 -0.2107356 0.7152031 -0.9149535 0.2597374 0.3088636 -0.6663894 0.2107353 0.7152035 -0.2563381 0.2563391 0.9319769 -0.2107341 0.666391 0.7152022 -0.2452621 0.9143404 0.3222238 -0.6772829 0.6772863 0.2873522 -0.01453804 0.2752719 -0.9612566 -0.01154828 0.7024298 -0.7116594 0.0106396 0.9749424 -0.2222033 -4.68655e-7 0.9749976 -0.2222157 0.01453727 0.9748946 -0.2221922 0.01154905 0.7490742 -0.6623855 -0.01064032 0.2752848 -0.9613038 0 0.2753005 -0.9613583 -5.54431e-7 0.72622 -0.6874624 0.01063883 -0.2752843 -0.961304 0 -0.2753008 -0.9613581 0.01453703 -0.2752702 -0.961257 0.01154869 -0.7024301 -0.711659 -0.01063996 -0.9749432 -0.2221994 0 -0.9749976 -0.2222156 -0.01453727 -0.9748942 -0.2221934 -0.01154798 -0.7490742 -0.6623856 0 -0.7262176 -0.6874649 -0.02638489 0.365508 0.9304342 8.81956e-7 0.3656347 0.9307584 0.02638512 0.365508 0.9304342 0.04470604 0.7337218 0.6779777 0.02638489 0.9563596 0.290999 0 0.9566925 0.2911004 -0.0263831 0.9563584 0.2910029 -0.04470437 0.733722 0.6779775 9.72595e-7 0.7344547 0.6786578 -0.02638512 -0.3655083 0.9304341 -0.0447064 -0.7337235 0.6779758 -0.02638566 -0.9563589 0.2910008 0 -0.9566931 0.2910987 0.02638375 -0.9563589 0.2910012 0.04470443 -0.7337214 0.6779782 0.026385 -0.3655094 0.9304336 0 -0.3656356 0.9307581 0 -0.7344558 0.6786565 0.9748945 -0.01453799 -0.2221924 0.7490756 -0.01154768 -0.6623839 0.2752827 0.01063954 -0.9613046 0.2752999 4.68656e-7 -0.9613584 0.2752741 0.01453799 -0.9612559 0.7024303 0.01155006 -0.7116589 0.9749423 -0.01063889 -0.2222034 0.9749975 0 -0.2222157 0.7262186 0 -0.6874639 -0.2752827 -0.01063972 -0.9613045 -0.2752996 1.26383e-6 -0.9613585 -0.2752713 -0.01453751 -0.9612568 -0.7024312 -0.01154834 -0.7116581 -0.9749426 0.01063913 -0.2222024 -0.9749974 1.87463e-6 -0.2222166 -0.9748945 0.01453614 -0.2221927 -0.7490738 0.01154744 -0.662386 -0.7262205 1.10886e-6 -0.6874619 0.9563587 -0.02638435 0.2910017 0.9566918 -1.76391e-6 0.291103 0.9563589 0.02638423 0.2910013 0.7337236 0.0447064 0.6779758 0.3655071 0.02638518 0.9304345 0.3656359 -1.32293e-6 0.930758 0.3655071 -0.02638423 0.9304346 0.7337232 -0.04470348 0.6779763 0.7344568 -2.9178e-6 0.6786554 -0.3655073 0.02638512 0.9304344 -0.7337222 0.04470443 0.6779774 -0.9563588 0.02638578 0.2910014 -0.9566923 -1.79918e-7 0.2911013 -0.9563592 -0.02638417 0.291 -0.7337223 -0.04470634 0.6779772 -0.3655074 -0.02638435 0.9304344 -0.3656362 0 0.9307578 -0.7344568 2.1436e-6 0.6786555 -0.08399266 -0.08399194 0.9929202 0 -0.08754616 0.9961606 0.08399122 -0.083992 0.9929203 0.08754569 0 0.9961605 0.08399307 0.08399194 0.9929202 4.1492e-7 0.08754706 0.9961605 -0.08399277 0.08399283 0.9929202 -0.08754861 -8.33239e-7 0.9961603 1.06529e-6 0 1 7.53074e-7 0 -1 7.53074e-7 0 -1 0.9781045 0.003729224 -0.2080808 0.7262194 1.53952e-5 -0.6874631 0.261534 0 -0.9651944 1.42172e-7 0.2615342 -0.9651942 0.003695428 0.7261108 -0.6875678 8.65297e-5 0.9781529 -0.2078869 0.2584973 0.9636815 0.06706136 0.7049875 0.7049874 0.07736515 0.9636819 0.2584958 0.06706094 0.003729522 -0.978105 -0.2080789 1.5274e-5 -0.726218 -0.6874645 0 -0.2615339 -0.9651944 0.9636811 -0.2584986 0.06706124 0.2584966 -0.9636817 0.06706094 -0.9781048 -0.003729522 -0.2080798 -0.7262187 -1.53059e-5 -0.6874638 -0.2615337 0 -0.9651944 -0.258498 -0.9636813 0.06706124 -0.7049875 -0.7049874 0.07736569 -0.9636812 -0.2584986 0.06706112 -0.9636818 0.2584963 0.06706106 -0.7049861 0.7049888 0.07736545 -0.2584969 0.9636816 0.06706112 0.2543 -0.01244556 0.9670453 0.6874713 3.00598e-4 0.7262116 0.9517961 -3.08006e-7 0.3067317 0 0.9517964 0.3067308 3.00849e-4 0.6874699 0.7262128 -0.01244539 0.2543002 0.9670453 -0.01244568 -0.2543006 0.9670453 3.00412e-4 -0.6874719 0.7262109 -5.36503e-7 -0.9517967 0.3067298 -0.2543001 0.01244544 0.9670454 -0.6874714 -3.00731e-4 0.7262114 -0.9517961 6.16012e-7 0.3067317 -4.28467e-5 0.2619085 -0.9650927 -0.003745734 0.7491198 -0.6624241 3.79539e-7 0.9705557 -0.240877 -2.51778e-7 -0.9779927 -0.2086395 -1.0658e-5 -0.7024768 -0.7117067 -0.003704249 -0.2936867 -0.9558946 -0.002079963 0.946646 0.3222687 0.008121371 0.7344333 0.6786324 0.0307489 0.395727 0.9178534 0.03074854 -0.3957273 0.9178531 0.008120656 -0.7344315 0.6786344 -0.002080798 -0.9466452 0.3222713 8.46186e-7 0.998498 0.05478817 0 0.9984981 0.05478817 8.46186e-7 0.998498 0.05478775 0 -0.9984981 0.05478745 0 -0.998498 0.05478745 0 -0.998498 0.05478763 0 -0.1124507 0.9936574 0 -0.1124507 0.9936573 0.9779927 0 -0.2086392 0.7024772 -1.0804e-5 -0.7117063 0.2936854 -0.003704369 -0.955895 -0.977993 2.87746e-7 -0.208638 -0.7024778 1.095e-5 -0.7117058 -0.2936854 0.003704428 -0.955895 0.3957282 0.03074854 0.9178529 0.7344321 0.008120834 0.6786337 0.9466454 -0.002080559 0.32227 -0.3957281 -0.03074878 0.9178528 -0.7344325 -0.008120834 0.6786332 -0.9466454 0.002080261 0.3222703 -0.07158541 0.1011886 0.9922885 0 0.1124507 0.9936573 0.07158565 0.1011886 0.9922885 8.70176e-7 0 -1 -2.17544e-7 0 -1 0 0 -1 0.1124504 0 0.9936574 0.1124505 -2.42922e-7 0.9936574 0.1124507 0 0.9936573 -0.9984981 -2.1441e-6 0.05478739 -0.998498 2.1441e-6 0.05478757 -0.9984981 0 0.05478757 0.998498 0 0.05478787 0.9984981 0 0.05478769 0.9984981 0 0.05478769 -0.101189 -0.07158607 0.9922884 -0.1124511 0 0.9936573 -0.1011887 0.07158619 0.9922885 0.998498 -6.89065e-7 0.05478769</float_array>
          <technique_common>
            <accessor source="#Cube-mesh-normals-array" count="469" stride="3">
              <param name="X" type="float"/>
              <param name="Y" type="float"/>
              <param name="Z" type="float"/>
            </accessor>
          </technique_common>
        </source>
        <vertices id="Cube-mesh-vertices">
          <input semantic="POSITION" source="#Cube-mesh-positions"/>
        </vertices>
        <triangles material="Material-material" count="508">
          <input semantic="VERTEX" source="#Cube-mesh-vertices" offset="0"/>
          <input semantic="NORMAL" source="#Cube-mesh-normals" offset="1"/>
          <p>96 0 176 0 37 0 128 1 208 1 227 1 60 2 114 2 14 2 72 3 178 3 26 3 97 4 86 4 131 4 129 5 194 5 50 5 1 0 241 0 99 0 115 6 73 6 25 6 211 7 144 7 224 7 160 8 61 8 13 8 161 9 113 9 242 9 195 10 147 10 62 10 112 0 177 0 243 0 49 11 98 11 130 11 179 12 84 12 38 12 3 13 4 13 0 13 7 14 5 14 3 14 1 15 8 15 7 15 6 16 11 16 8 16 9 17 10 17 2 17 9 18 5 18 11 18 5 19 8 19 11 19 12 20 17 20 16 20 15 21 20 21 17 21 18 22 19 22 13 22 18 23 23 23 20 23 21 24 22 24 14 24 16 25 23 25 21 25 17 26 20 26 23 26 24 27 29 27 28 27 27 28 32 28 29 28 30 29 31 29 25 29 34 30 32 30 30 30 33 31 34 31 26 31 28 32 35 32 33 32 29 33 32 33 35 33 39 34 40 34 36 34 43 35 41 35 39 35 37 36 44 36 43 36 42 37 47 37 44 37 45 38 46 38 38 38 40 39 47 39 45 39 41 40 44 40 47 40 48 41 53 41 52 41 51 42 56 42 53 42 49 43 56 43 55 43 54 44 59 44 56 44 57 45 58 45 50 45 52 46 59 46 57 46 53 47 56 47 59 47 60 48 65 48 64 48 63 49 68 49 65 49 61 50 68 50 67 50 66 51 71 51 68 51 69 52 70 52 62 52 64 53 71 53 69 53 65 54 68 54 71 54 72 55 77 55 76 55 79 56 77 56 75 56 73 57 80 57 79 57 78 58 83 58 80 58 81 59 82 59 74 59 76 60 83 60 81 60 77 61 80 61 83 61 84 62 89 62 88 62 87 63 92 63 89 63 90 64 91 64 85 64 94 65 92 65 90 65 86 66 95 66 94 66 93 67 89 67 95 67 89 68 92 68 95 68 100 69 101 69 96 69 100 70 105 70 102 70 103 71 104 71 97 71 107 72 105 72 103 72 106 73 107 73 98 73 106 74 111 74 108 74 109 75 110 75 99 75 109 76 102 76 111 76 105 77 111 77 102 77 116 78 117 78 112 78 116 79 121 79 118 79 119 80 120 80 113 80 119 81 124 81 121 81 122 82 123 82 114 82 126 83 124 83 122 83 125 84 126 84 115 84 125 85 118 85 127 85 118 86 124 86 127 86 132 87 133 87 128 87 132 88 137 88 134 88 135 89 136 89 129 89 135 90 140 90 137 90 138 91 139 91 130 91 142 92 140 92 138 92 141 93 142 93 131 93 133 94 143 94 141 94 134 95 140 95 143 95 148 96 149 96 144 96 152 97 150 97 148 97 151 98 152 98 145 98 155 99 153 99 151 99 154 100 155 100 146 100 158 101 156 101 154 101 157 102 158 102 147 102 149 103 159 103 157 103 153 104 159 104 150 104 164 105 165 105 160 105 164 106 169 106 166 106 167 107 168 107 161 107 167 108 172 108 169 108 170 109 171 109 162 109 170 110 175 110 172 110 173 111 174 111 163 111 173 112 166 112 175 112 169 113 175 113 166 113 180 114 181 114 176 114 184 115 182 115 180 115 183 116 184 116 177 116 183 117 188 117 185 117 186 118 187 118 178 118 190 119 188 119 186 119 189 120 190 120 179 120 189 121 182 121 191 121 185 122 191 122 182 122 196 123 197 123 192 123 196 124 201 124 198 124 199 125 200 125 193 125 203 126 201 126 199 126 202 127 203 127 194 127 202 128 207 128 204 128 205 129 206 129 195 129 205 130 198 130 207 130 198 131 204 131 207 131 212 132 213 132 208 132 216 133 214 133 212 133 215 134 216 134 209 134 219 135 217 135 215 135 218 136 219 136 210 136 222 137 220 137 218 137 221 138 222 138 211 138 213 139 223 139 221 139 214 140 220 140 223 140 228 141 229 141 224 141 228 142 233 142 230 142 231 143 232 143 225 143 235 144 233 144 231 144 234 145 235 145 226 145 238 146 236 146 234 146 237 147 238 147 227 147 229 148 239 148 237 148 233 149 239 149 230 149 244 0 245 0 240 0 248 0 246 0 244 0 247 0 248 0 241 0 251 150 249 150 247 150 250 0 251 0 242 0 254 0 252 0 250 0 253 0 254 0 243 0 245 150 255 150 253 150 249 0 255 0 246 0 13 151 164 151 160 151 19 152 168 152 164 152 15 153 161 153 168 153 96 154 43 154 100 154 100 155 39 155 104 155 104 156 36 156 97 156 2 157 55 157 9 157 55 158 4 158 9 158 51 159 0 159 4 159 25 160 125 160 115 160 31 161 117 161 125 161 27 162 112 162 117 162 13 163 67 163 18 163 67 164 22 164 18 164 63 165 14 165 22 165 38 166 189 166 179 166 46 167 181 167 189 167 42 168 176 168 181 168 25 169 79 169 30 169 79 170 34 170 30 170 75 171 26 171 34 171 38 172 88 172 45 172 45 173 93 173 40 173 93 174 36 174 40 174 62 175 205 175 195 175 70 176 197 176 205 176 66 177 192 177 197 177 131 178 94 178 141 178 141 179 90 179 133 179 133 180 85 180 128 180 74 181 148 181 144 181 82 182 152 182 148 182 78 183 145 183 152 183 85 184 212 184 208 184 91 185 216 185 212 185 87 186 209 186 216 186 99 187 6 187 1 187 110 188 10 188 6 188 106 189 2 189 10 189 14 190 123 190 21 190 21 191 119 191 16 191 16 192 113 192 12 192 130 193 54 193 49 193 139 194 58 194 54 194 135 195 50 195 58 195 62 196 158 196 69 196 69 197 154 197 64 197 64 198 146 198 60 198 131 199 103 199 97 199 142 200 107 200 103 200 138 201 98 201 107 201 115 202 151 202 145 202 126 203 155 203 151 203 122 202 146 202 155 202 144 204 228 204 224 204 228 205 157 205 232 205 232 206 147 206 225 206 96 207 244 207 240 207 101 208 248 208 244 208 109 209 241 209 248 209 0 210 174 210 3 210 3 211 170 211 7 211 7 212 162 212 1 212 26 213 187 213 33 213 33 214 183 214 28 214 28 215 177 215 24 215 50 216 203 216 57 216 57 217 199 217 52 217 52 218 193 218 48 218 74 219 222 219 81 219 81 220 218 220 76 220 76 221 210 221 72 221 128 222 238 222 132 222 238 223 136 223 132 223 234 224 129 224 136 224 243 0 116 0 112 0 254 0 120 0 116 0 120 0 242 0 113 0 242 0 167 0 161 0 251 225 171 225 167 225 171 0 241 0 162 0 195 226 231 226 225 226 206 227 235 227 231 227 235 228 194 228 226 228 179 229 215 229 209 229 190 230 219 230 215 230 186 231 210 231 219 231 160 232 196 232 192 232 165 233 200 233 196 233 173 234 193 234 200 234 211 235 229 235 221 235 221 236 237 236 213 236 237 237 208 237 213 237 243 238 184 238 253 238 253 238 180 238 245 238 180 0 240 0 245 0 48 239 163 239 0 239 96 240 240 240 176 240 128 241 85 241 208 241 60 242 146 242 114 242 72 243 210 243 178 243 97 244 36 244 86 244 129 245 226 245 194 245 1 0 162 0 241 0 115 246 145 246 73 246 211 247 74 247 144 247 160 248 192 248 61 248 161 0 12 0 113 0 195 249 225 249 147 249 112 0 24 0 177 0 49 250 2 250 98 250 179 251 209 251 84 251 3 252 5 252 4 252 7 253 8 253 5 253 1 254 6 254 8 254 6 255 10 255 11 255 9 256 11 256 10 256 9 257 4 257 5 257 12 258 15 258 17 258 15 259 19 259 20 259 18 260 20 260 19 260 18 261 22 261 23 261 21 262 23 262 22 262 16 263 17 263 23 263 24 264 27 264 29 264 27 265 31 265 32 265 30 266 32 266 31 266 34 267 35 267 32 267 33 268 35 268 34 268 28 269 29 269 35 269 39 270 41 270 40 270 43 271 44 271 41 271 37 272 42 272 44 272 42 273 46 273 47 273 45 274 47 274 46 274 40 275 41 275 47 275 48 276 51 276 53 276 51 277 55 277 56 277 49 278 54 278 56 278 54 279 58 279 59 279 57 280 59 280 58 280 52 281 53 281 59 281 60 282 63 282 65 282 63 283 67 283 68 283 61 284 66 284 68 284 66 285 70 285 71 285 69 286 71 286 70 286 64 287 65 287 71 287 72 288 75 288 77 288 79 289 80 289 77 289 73 290 78 290 80 290 78 291 82 291 83 291 81 292 83 292 82 292 76 293 77 293 83 293 84 294 87 294 89 294 87 295 91 295 92 295 90 296 92 296 91 296 94 297 95 297 92 297 86 298 93 298 95 298 93 299 88 299 89 299 100 300 102 300 101 300 100 301 104 301 105 301 103 302 105 302 104 302 107 303 108 303 105 303 106 304 108 304 107 304 106 305 110 305 111 305 109 306 111 306 110 306 109 307 101 307 102 307 105 308 108 308 111 308 116 309 118 309 117 309 116 310 120 310 121 310 119 311 121 311 120 311 119 312 123 312 124 312 122 313 124 313 123 313 126 314 127 314 124 314 125 315 127 315 126 315 125 316 117 316 118 316 118 317 121 317 124 317 132 318 134 318 133 318 132 319 136 319 137 319 135 320 137 320 136 320 135 321 139 321 140 321 138 322 140 322 139 322 142 323 143 323 140 323 141 324 143 324 142 324 133 325 134 325 143 325 134 326 137 326 140 326 148 327 150 327 149 327 152 328 153 328 150 328 151 329 153 329 152 329 155 330 156 330 153 330 154 331 156 331 155 331 158 332 159 332 156 332 157 333 159 333 158 333 149 334 150 334 159 334 153 335 156 335 159 335 164 336 166 336 165 336 164 337 168 337 169 337 167 338 169 338 168 338 167 339 171 339 172 339 170 340 172 340 171 340 170 341 174 341 175 341 173 342 175 342 174 342 173 343 165 343 166 343 169 344 172 344 175 344 180 345 182 345 181 345 184 346 185 346 182 346 183 347 185 347 184 347 183 348 187 348 188 348 186 349 188 349 187 349 190 350 191 350 188 350 189 351 191 351 190 351 189 352 181 352 182 352 185 353 188 353 191 353 196 354 198 354 197 354 196 355 200 355 201 355 199 356 201 356 200 356 203 357 204 357 201 357 202 358 204 358 203 358 202 359 206 359 207 359 205 360 207 360 206 360 205 361 197 361 198 361 198 362 201 362 204 362 212 363 214 363 213 363 216 364 217 364 214 364 215 365 217 365 216 365 219 366 220 366 217 366 218 367 220 367 219 367 222 368 223 368 220 368 221 369 223 369 222 369 213 370 214 370 223 370 214 371 217 371 220 371 228 372 230 372 229 372 228 373 232 373 233 373 231 374 233 374 232 374 235 375 236 375 233 375 234 376 236 376 235 376 238 377 239 377 236 377 237 378 239 378 238 378 229 379 230 379 239 379 233 380 236 380 239 380 244 0 246 0 245 0 248 0 249 0 246 0 247 0 249 0 248 0 251 0 252 0 249 0 250 0 252 0 251 0 254 381 255 381 252 381 253 0 255 0 254 0 245 0 246 0 255 0 249 382 252 382 255 382 13 383 19 383 164 383 19 384 15 384 168 384 15 385 12 385 161 385 96 386 37 386 43 386 100 387 43 387 39 387 104 388 39 388 36 388 2 389 49 389 55 389 55 390 51 390 4 390 51 391 48 391 0 391 25 392 31 392 125 392 31 393 27 393 117 393 27 394 24 394 112 394 13 395 61 395 67 395 67 164 63 164 22 164 63 396 60 396 14 396 38 397 46 397 189 397 46 398 42 398 181 398 42 399 37 399 176 399 25 400 73 400 79 400 79 401 75 401 34 401 75 402 72 402 26 402 38 403 84 403 88 403 45 404 88 404 93 404 93 405 86 405 36 405 62 406 70 406 205 406 70 407 66 407 197 407 66 408 61 408 192 408 131 409 86 409 94 409 141 410 94 410 90 410 133 411 90 411 85 411 74 412 82 412 148 412 82 413 78 413 152 413 78 414 73 414 145 414 85 415 91 415 212 415 91 416 87 416 216 416 87 417 84 417 209 417 99 418 110 418 6 418 110 419 106 419 10 419 106 420 98 420 2 420 14 421 114 421 123 421 21 422 123 422 119 422 16 423 119 423 113 423 130 424 139 424 54 424 139 425 135 425 58 425 135 426 129 426 50 426 62 427 147 427 158 427 69 428 158 428 154 428 64 429 154 429 146 429 131 430 142 430 103 430 142 431 138 431 107 431 138 432 130 432 98 432 115 433 126 433 151 433 126 434 122 434 155 434 122 435 114 435 146 435 144 436 149 436 228 436 228 436 149 436 157 436 232 437 157 437 147 437 96 0 101 0 244 0 101 0 109 0 248 0 109 0 99 0 241 0 0 438 163 438 174 438 3 439 174 439 170 439 7 440 170 440 162 440 26 441 178 441 187 441 33 442 187 442 183 442 28 443 183 443 177 443 50 444 194 444 203 444 57 445 203 445 199 445 52 446 199 446 193 446 74 447 211 447 222 447 81 448 222 448 218 448 76 449 218 449 210 449 128 450 227 450 238 450 238 451 234 451 136 451 234 452 226 452 129 452 243 0 254 0 116 0 254 453 250 453 120 453 120 454 250 454 242 454 242 455 251 455 167 455 251 0 247 0 171 0 171 0 247 0 241 0 195 456 206 456 231 456 206 457 202 457 235 457 235 458 202 458 194 458 179 459 190 459 215 459 190 460 186 460 219 460 186 461 178 461 210 461 160 462 165 462 196 462 165 463 173 463 200 463 173 464 163 464 193 464 211 465 224 465 229 465 221 466 229 466 237 466 237 467 227 467 208 467 243 0 177 0 184 0 253 225 184 225 180 225 180 225 176 225 240 225 48 468 193 468 163 468</p>
        </triangles>
      </mesh>
    </geometry>
  </library_geometries>
  <library_controllers/>
  <library_visual_scenes>
    <visual_scene id="Scene" name="Scene">
      <node id="Cube_-col" name="Cube_-col" type="NODE">
        <matrix sid="transform">16 0 0 0 0 16 0 0 0 0 32 0 0 0 0 1</matrix>
        <instance_geometry url="#Cube-mesh" name="Cube_-col">
          <bind_material>
            <technique_common>
              <instance_material symbol="Material-material" target="#Material-material"/>
            </technique_common>
          </bind_material>
        </instance_geometry>
      </node>
    </visual_scene>
  </library_visual_scenes>
  <scene>
    <instance_visual_scene url="#Scene"/>
  </scene>
</COLLADA>